waveform.vcd
$version Generated by VerilatedVcd $end
$date Fri Nov 19 14:38:18 2021 $end
$timescale 1ps $end

 $scope module TOP $end
  $var wire  1 _! clk $end
  $var wire  1 `! reset $end
  $scope module riscv_topp $end
   $var wire 224 J D_E [223:0] $end
   $var wire  1 e D_E_UJ_en $end
   $var wire  1 k D_E_U_en $end
   $var wire 32 )! D_E_alu1_in [31:0] $end
   $var wire 32 ? D_E_alu2_in [31:0] $end
   $var wire  4 t D_E_alu_sel [3:0] $end
   $var wire  1 n D_E_auipc_en $end
   $var wire  1 \ D_E_branch $end
   $var wire  4 u D_E_func3 [3:0] $end
   $var wire  1 [ D_E_imm_sel $end
   $var wire  1 h D_E_jalr_en $end
   $var wire  1 ] D_E_ld_en $end
   $var wire 32 #! D_E_pc [31:0] $end
   $var wire  5 x D_E_rd_adr [4:0] $end
   $var wire  1 ` D_E_rd_en $end
   $var wire  5 y D_E_rs1_adr [4:0] $end
   $var wire  5 z D_E_rs2_adr [4:0] $end
   $var wire 32 /! D_E_rs2_data [31:0] $end
   $var wire 32 ~ D_E_sb_imm [31:0] $end
   $var wire  1 c D_E_str_en $end
   $var wire 32 !! D_E_u [31:0] $end
   $var wire 32 "! D_E_u_imm [31:0] $end
   $var wire 145 Q E_M [144:0] $end
   $var wire  1 f E_M_UJ_en $end
   $var wire  1 l E_M_U_en $end
   $var wire 32 +! E_M_alu_o [31:0] $end
   $var wire  1 o E_M_auipc_en $end
   $var wire  1 Z E_M_b_en $end
   $var wire  4 v E_M_func3 [3:0] $end
   $var wire  1 i E_M_jalr_en $end
   $var wire  1 ^ E_M_ld_en $end
   $var wire 32 %! E_M_pc [31:0] $end
   $var wire  5 { E_M_rd_adr [4:0] $end
   $var wire  1 a E_M_rd_en $end
   $var wire 32 0! E_M_rs2_data [31:0] $end
   $var wire  1 d E_M_str_en $end
   $var wire 32 $! E_M_u_imm [31:0] $end
   $var wire 64 4! F_D [63:0] $end
   $var wire 64 6! F_D1 [63:0] $end
   $var wire 32 (! F_D_inst [31:0] $end
   $var wire 32 < F_D_inst1 [31:0] $end
   $var wire 32 *! F_D_pc [31:0] $end
   $var wire 139 8! M_D [138:0] $end
   $var wire  1 g M_D_UJ_en $end
   $var wire  1 m M_D_U_en $end
   $var wire 32 -! M_D_alu_o [31:0] $end
   $var wire  1 p M_D_auipc_en $end
   $var wire  1 j M_D_jalr_en $end
   $var wire 32 ,! M_D_l_d [31:0] $end
   $var wire  1 _ M_D_ld_en $end
   $var wire 32 '! M_D_pc [31:0] $end
   $var wire  5 | M_D_rd_adr [4:0] $end
   $var wire  1 b M_D_rd_en $end
   $var wire 32 &! M_D_u_imm [31:0] $end
   $var wire  1 1 UJ_en $end
   $var wire  1 $ UJ_en1 $end
   $var wire  1 3 U_en $end
   $var wire  4 w WE [3:0] $end
   $var wire 32 G alu_o [31:0] $end
   $var wire  4 7 alu_sel [3:0] $end
   $var wire  1 4 auipc_en $end
   $var wire  1 5 b_en $end
   $var wire  1 . branch $end
   $var wire  1 % branch1 $end
   $var wire  1 _! clk $end
   $var wire  3 s con3 [2:0] $end
   $var wire  1 a! forward1 $end
   $var wire  1 b! forward2 $end
   $var wire  2 q forwardA [1:0] $end
   $var wire  2 r forwardB [1:0] $end
   $var wire  4 6 func3 [3:0] $end
   $var wire 32 A i_imm [31:0] $end
   $var wire  1 - imm_sel $end
   $var wire 32 .! inst [31:0] $end
   $var wire  1 2 jalr_en $end
   $var wire  1 # jalr_en1 $end
   $var wire 32 3! l_d [31:0] $end
   $var wire  1 0 ld_en $end
   $var wire  1 & ld_en1 $end
   $var wire 12 } mem_adr [11:0] $end
   $var wire 32 0! mem_in [31:0] $end
   $var wire 32 1! mem_o [31:0] $end
   $var wire  7 ; opcode [6:0] $end
   $var wire 32 2! pc [31:0] $end
   $var wire  5 8 rd_adr [4:0] $end
   $var wire 32 @ rd_data [31:0] $end
   $var wire  1 * rd_en $end
   $var wire  1 ' rd_en1 $end
   $var wire  1 `! reset $end
   $var wire  5 9 rs1_adr [4:0] $end
   $var wire 32 c! rs1_data [31:0] $end
   $var wire 32 = rs1_data1 [31:0] $end
   $var wire  1 + rs1_en $end
   $var wire 32 H rs1_sltd_data [31:0] $end
   $var wire  5 : rs2_adr [4:0] $end
   $var wire 32 d! rs2_data [31:0] $end
   $var wire 32 > rs2_data1 [31:0] $end
   $var wire  1 , rs2_en $end
   $var wire 32 I rs2_sltd_data [31:0] $end
   $var wire 32 B s_imm [31:0] $end
   $var wire 32 C sb_imm [31:0] $end
   $var wire  1 ) stall $end
   $var wire  1 / str_en $end
   $var wire  1 ( str_en1 $end
   $var wire 32 F u [31:0] $end
   $var wire 32 D u_imm [31:0] $end
   $var wire 32 E uj_imm [31:0] $end
   $scope module alu1 $end
    $var wire  1 \ branch $end
    $var wire 32 G data_out [31:0] $end
    $var wire  4 t func3 [3:0] $end
    $var wire 32 H rs1 [31:0] $end
    $var wire 32 ? rs2 [31:0] $end
    $var wire  4 t sel [3:0] $end
   $upscope $end
   $scope module alu_con1 $end
    $var wire  4 7 alu_sel [3:0] $end
    $var wire  4 6 func3 [3:0] $end
    $var wire  7 ; opcode [6:0] $end
    $var wire  3 Y temp [2:0] $end
   $upscope $end
   $scope module control_unit1 $end
    $var wire  1 X I_type $end
    $var wire  1 W R_type $end
    $var wire  1 3 U $end
    $var wire  1 1 UJ $end
    $var wire  1 4 auipc $end
    $var wire  1 . branch $end
    $var wire  1 - imm_sel $end
    $var wire  1 2 jalr $end
    $var wire  1 0 mem_read $end
    $var wire  1 / mem_write $end
    $var wire  7 ; opcode [6:0] $end
    $var wire  1 * rd_en $end
    $var wire  1 + rs1_en $end
    $var wire  1 , rs2_en $end
    $scope module typ_dec1 $end
     $var wire  1 X I_type $end
     $var wire  1 W R_type $end
     $var wire  1 . SB_type $end
     $var wire  1 / S_type $end
     $var wire  1 1 UJ_type $end
     $var wire  1 3 U_type $end
     $var wire  1 4 auipc $end
     $var wire  1 - imm_sel $end
     $var wire  1 2 jalr $end
     $var wire  1 0 load $end
     $var wire  7 ; opcode [6:0] $end
    $upscope $end
   $upscope $end
   $scope module datamemory1 $end
    $var wire  4 w WE [3:0] $end
    $var wire 12 } adr [11:0] $end
    $var wire  1 _! clk $end
    $var wire 32 0! data_in [31:0] $end
    $var wire 32 1! data_out [31:0] $end
    $var wire  1 ^ ld $end
    $var wire  1 d str $end
   $upscope $end
   $scope module decoder1 $end
    $var wire  4 6 func3 [3:0] $end
    $var wire  7 V func7 [6:0] $end
    $var wire 32 < inst [31:0] $end
    $var wire  7 ; opcode [6:0] $end
    $var wire  5 8 rd [4:0] $end
    $var wire  5 9 rs1 [4:0] $end
    $var wire  5 : rs2 [4:0] $end
   $upscope $end
   $scope module fetch1 $end
    $var wire 32 ~ SBimm [31:0] $end
    $var wire  1 $ UJ_en $end
    $var wire 32 E UJimm [31:0] $end
    $var wire 32 G al [31:0] $end
    $var wire 24 =! b [23:0] $end
    $var wire  1 5 b_en $end
    $var wire  1 _! clk $end
    $var wire 32 .! inst [31:0] $end
    $var wire  1 h jalr $end
    $var wire 32 2! pc [31:0] $end
    $var wire  1 `! reset $end
    $var wire  1 ) stall $end
    $scope module instmem1 $end
     $var wire 24 =! adr [23:0] $end
     $var wire 32 .! data_out [31:0] $end
    $upscope $end
    $scope module pc_counter1 $end
     $var wire 32 2! PC [31:0] $end
     $var wire 32 ~ SBimm [31:0] $end
     $var wire  1 $ UJ_en $end
     $var wire 32 E UJimm [31:0] $end
     $var wire 32 G al [31:0] $end
     $var wire  1 5 b_en $end
     $var wire  1 _! clk $end
     $var wire  1 h jalr $end
     $var wire  1 `! reset $end
     $var wire  1 ) stall $end
    $upscope $end
   $upscope $end
   $scope module forwarding_unit1 $end
    $var wire  5 y D_E_rs1_adr [4:0] $end
    $var wire  5 z D_E_rs2_adr [4:0] $end
    $var wire  5 { E_M_rd_adr [4:0] $end
    $var wire  1 a E_M_rd_en $end
    $var wire  5 | M_D_rd_adr [4:0] $end
    $var wire  1 b M_D_rd_en $end
    $var wire  1 a! forward1 $end
    $var wire  1 b! forward2 $end
    $var wire  2 q forwardA [1:0] $end
    $var wire  2 r forwardB [1:0] $end
    $var wire  5 9 rs1_adr [4:0] $end
    $var wire  5 : rs2_adr [4:0] $end
   $upscope $end
   $scope module hazard_detection_unit1 $end
    $var wire  1 ] D_E_ld_en $end
    $var wire  5 x D_E_rd_adr [4:0] $end
    $var wire  5 9 rs1_adr [4:0] $end
    $var wire  5 : rs2_adr [4:0] $end
    $var wire  1 ) stall $end
   $upscope $end
   $scope module imm_gen1 $end
    $var wire 32 A I [31:0] $end
    $var wire 32 B S [31:0] $end
    $var wire 32 C SB [31:0] $end
    $var wire 32 D U [31:0] $end
    $var wire 32 E UJ [31:0] $end
    $var wire 32 < inst [31:0] $end
   $upscope $end
   $scope module reg_file1 $end
    $var wire  1 _! clk $end
    $var wire 32 ^! i [31:0] $end
    $var wire  5 | rd [4:0] $end
    $var wire 32 @ rd_data [31:0] $end
    $var wire  1 b rd_en $end
    $var wire 32 >! regis[0] [31:0] $end
    $var wire 32 H! regis[10] [31:0] $end
    $var wire 32 I! regis[11] [31:0] $end
    $var wire 32 J! regis[12] [31:0] $end
    $var wire 32 K! regis[13] [31:0] $end
    $var wire 32 L! regis[14] [31:0] $end
    $var wire 32 M! regis[15] [31:0] $end
    $var wire 32 N! regis[16] [31:0] $end
    $var wire 32 O! regis[17] [31:0] $end
    $var wire 32 P! regis[18] [31:0] $end
    $var wire 32 Q! regis[19] [31:0] $end
    $var wire 32 ?! regis[1] [31:0] $end
    $var wire 32 R! regis[20] [31:0] $end
    $var wire 32 S! regis[21] [31:0] $end
    $var wire 32 T! regis[22] [31:0] $end
    $var wire 32 U! regis[23] [31:0] $end
    $var wire 32 V! regis[24] [31:0] $end
    $var wire 32 W! regis[25] [31:0] $end
    $var wire 32 X! regis[26] [31:0] $end
    $var wire 32 Y! regis[27] [31:0] $end
    $var wire 32 Z! regis[28] [31:0] $end
    $var wire 32 [! regis[29] [31:0] $end
    $var wire 32 @! regis[2] [31:0] $end
    $var wire 32 \! regis[30] [31:0] $end
    $var wire 32 ]! regis[31] [31:0] $end
    $var wire 32 A! regis[3] [31:0] $end
    $var wire 32 B! regis[4] [31:0] $end
    $var wire 32 C! regis[5] [31:0] $end
    $var wire 32 D! regis[6] [31:0] $end
    $var wire 32 E! regis[7] [31:0] $end
    $var wire 32 F! regis[8] [31:0] $end
    $var wire 32 G! regis[9] [31:0] $end
    $var wire  1 `! reset $end
    $var wire  5 9 rs1 [4:0] $end
    $var wire 32 c! rs1_data [31:0] $end
    $var wire  1 + rs1_en $end
    $var wire  5 : rs2 [4:0] $end
    $var wire 32 d! rs2_data [31:0] $end
    $var wire  1 , rs2_en $end
   $upscope $end
  $upscope $end
 $upscope $end
$enddefinitions $end


#0
0#
0$
0%
0&
0'
0(
0)
0*
0+
0,
0-
0.
0/
00
01
02
03
04
05
b0000 6
b0000 7
b00000 8
b00000 9
b00000 :
b0000000 ;
b00000000000000000000000000000000 <
b00000000000000000000000000000000 =
b00000000000000000000000000000000 >
b00000000000000000000000000000000 ?
b00000000000000000000000000000000 @
b00000000000000000000000000000000 A
b00000000000000000000000000000000 B
b00000000000000000000000000000000 C
b00000000000000000000000000000000 D
b00000000000000000000000000000000 E
b00000000000000000000000000000000 F
b00000000000000000000000000000000 G
b00000000000000000000000000000000 H
b00000000000000000000000000000000 I
b00000000000000000000000000000000000000000000000000000000000000000000000000000000000000000000000000000000000000000000000000000000000000000000000000000000000000000000000000000000000000000000000000000000000000000000000000000000 J
b0000000000000000000000000000000000000000000000000000000000000000000000000000000000000000000000000000000000000000000000000000000000000000000000000 Q
b0000000 V
0W
0X
b000 Y
0Z
0[
0\
0]
0^
0_
0`
0a
0b
0c
0d
0e
0f
0g
0h
0i
0j
0k
0l
0m
0n
0o
0p
b00 q
b00 r
b000 s
b0000 t
b0000 u
b0000 v
b0000 w
b00000 x
b00000 y
b00000 z
b00000 {
b00000 |
b000000000000 }
b00000000000000000000000000000000 ~
b00000000000000000000000000000000 !!
b00000000000000000000000000000000 "!
b00000000000000000000000000000000 #!
b00000000000000000000000000000000 $!
b00000000000000000000000000000000 %!
b00000000000000000000000000000000 &!
b00000000000000000000000000000000 '!
b00000000000000000000000000000000 (!
b00000000000000000000000000000000 )!
b00000000000000000000000000000000 *!
b00000000000000000000000000000000 +!
b00000000000000000000000000000000 ,!
b00000000000000000000000000000000 -!
b00000001000100000000111100010011 .!
b00000000000000000000000000000000 /!
b00000000000000000000000000000000 0!
b00000000000000000000000000000000 1!
b00000000000000000000000000000000 2!
b00000000000000000000000000000000 3!
b0000000000000000000000000000000000000001000100000000111100010011 4!
b0000000000000000000000000000000000000000000000000000000000000000 6!
b0000000000000000000000000000000000000000000000000000000000000000000000000000000000000000000000000000000000000000000000000000000000000000000 8!
b000000000000000000000000 =!
b00000000000000000000000000000000 >!
b00000000000000000000000000000000 ?!
b00000000000000000000000000000000 @!
b00000000000000000000000000000000 A!
b00000000000000000000000000000000 B!
b00000000000000000000000000000000 C!
b00000000000000000000000000000000 D!
b00000000000000000000000000000000 E!
b00000000000000000000000000000000 F!
b00000000000000000000000000000000 G!
b00000000000000000000000000000000 H!
b00000000000000000000000000000000 I!
b00000000000000000000000000000000 J!
b00000000000000000000000000000000 K!
b00000000000000000000000000000000 L!
b00000000000000000000000000000000 M!
b00000000000000000000000000000000 N!
b00000000000000000000000000000000 O!
b00000000000000000000000000000000 P!
b00000000000000000000000000000000 Q!
b00000000000000000000000000000000 R!
b00000000000000000000000000000000 S!
b00000000000000000000000000000000 T!
b00000000000000000000000000000000 U!
b00000000000000000000000000000000 V!
b00000000000000000000000000000000 W!
b00000000000000000000000000000000 X!
b00000000000000000000000000000000 Y!
b00000000000000000000000000000000 Z!
b00000000000000000000000000000000 [!
b00000000000000000000000000000000 \!
b00000000000000000000000000000000 ]!
b00000000000000000000000000000000 ^!
1_!
0`!
0a!
0b!
b00000000000000000000000000000000 c!
b00000000000000000000000000000000 d!
#1
0_!
#2
1'
1*
1+
1-
b11110 8
b10001 :
b0010011 ;
b00000001000100000000111100010011 <
b00000000000000000000000000010001 A
b00000000000000000000000000011110 B
b00000000000000000000000000011110 C
b00000001000100000000000000000000 D
b00000000000000000000100000010000 E
b00000000000000000000000000010001 F
b00000000000000000000000000011110100010000010000000010001000000000000000000000000000000000000000000000000000000011110010000000000000000000000000000000000000100010000000000000000000000000000000000000000000000000000000000000000 J
1X
b00000001000100000000111100010011 (!
b00000001111000000010000000100011 .!
b00000000000000000000000000000100 2!
b0000000000000000000000000000010000000001111000000010000000100011 4!
b0000000000000000000000000000000000000001000100000000111100010011 6!
b000000000000000000000001 =!
1_!
#3
0_!
#4
0'
1(
0*
1,
1/
b0010 6
b1001 7
b00000 8
b11110 :
b0100011 ;
b00000001111000000010000000100011 <
b00000000000000000000000000010001 ?
b00000000000000000000000000011110 A
b00000000000000000000000000000000 B
b00000000000000000000000000000000 C
b00000001111000000010000000000000 D
b00000000000000000010000000011110 E
b00000000000000000000000000000000 F
b00000000000000000000000000010001 G
b00000000000000000000000000000000111100000010000000011110000000100000000000000000000000000000000000000000010000000000100001001001000000000000000000000000000000000000000000000000000000000000000000000000000000000000000000000000 J
b0000000001000100000000000000000000000000000000000000000000000000000001111001000000000000000000000000000000000000000000000000000000000000000010001 Q
0X
b010 Y
1[
1`
b11110 x
b10001 z
b00000000000000000000000000011110 ~
b00000000000000000000000000010001 !!
b00000001000100000000000000000000 "!
b00000001111000000010000000100011 (!
b00000000000000000000000000000100 *!
b00000000000000000000011010010011 .!
b00000000000000000000000000001000 2!
b0000000000000000000000000000100000000000000000000000011010010011 4!
b0000000000000000000000000000010000000001111000000010000000100011 6!
b000000000000000000000010 =!
1_!
#5
0_!
#6
1'
0(
1*
0,
0/
b0000 6
b0000 7
b01101 8
b00000 :
b0010011 ;
b00000000000000000000011010010011 <
b00000000000000000000000000000000 ?
b00000000000000000000000000000000 A
b00000000000000000000000000001101 B
b00000000000000000000100000001100 C
b00000000000000000000000000000000 D
b00000000000000000000000000000000 E
b00000000000000000000000000000000 G
b00000000000000000000000000010001 I
b00000000000000000000100000001100000000000010000000000000000000000000000000000000000000000000000000000000100000001101010000000000000000000000000000000000000000000000000000000000000000000000000000000000000000000000000000000000 J
b0000000001111000000010000000000000000000000000000000000000000001000000000010000100000000000000000000000000001000100000000000000000000000000000000 Q
1X
b000 Y
0`
1a
1c
b10 r
b1001 t
b0010 u
b00000 x
b11110 z
b11110 {
b000000000100 }
b00000000000000000000000000000000 ~
b00000000000000000000000000000000 !!
b00000001111000000010000000000000 "!
b00000000000000000000000000000100 #!
b00000001000100000000000000000000 $!
b00000000000000000000011010010011 (!
b00000000000000000000000000001000 *!
b00000000000000000000000000010001 +!
b00000000000000000000011000010011 .!
b00000000000000000000000000001100 2!
b0000000000000000000000000000110000000000000000000000011000010011 4!
b0000000000000000000000000000100000000000000000000000011010010011 6!
b0000000010001000000000000000000000000000000000000000000000000000000011110100000000000000000000000000001000100000000000000000000000000000000 8!
b000000000000000000000011 =!
1_!
#7
0_!
#8
b01100 8
b00000000000000000000011000010011 <
b00000000000000000000000000010001 @
b00000000000000000000000000001100 B
b00000000000000000000000000001100 C
b00000000000000000000000000000000 I
b00000000000000000000000000001100000000000010000000000000000000000000000000000000000000000000000000000000110000001100010000000000000000000000000000000000000000000000000000000000000000000000000000000000000000000000000000000000 J
b0000000000000000000000000000000000000000000000000000000000000010000000110101000000000000000000000000000000000000000000000000000000000000000000000 Q
1`
0a
1b
0c
1d
b00 r
b010 s
b0000 t
b0000 u
b0010 v
b1111 w
b01101 x
b00000 z
b00000 {
b11110 |
b000000000000 }
b00000000000000000000100000001100 ~
b00000000000000000000000000000000 "!
b00000000000000000000000000001000 #!
b00000001111000000010000000000000 $!
b00000000000000000000000000000100 %!
b00000001000100000000000000000000 &!
b00000000000000000000011000010011 (!
b00000000000000000000000000001100 *!
b00000000000000000000000000000000 +!
b00000000000000000000000000010001 -!
b00000000000000000000010110010011 .!
b00000000000000000000000000010001 0!
b00000000000000000000000000010000 2!
b0000000000000000000000000001000000000000000000000000010110010011 4!
b0000000000000000000000000000110000000000000000000000011000010011 6!
b0000000011110000000100000000000000000000000000000000000000000010000000000000000000000000000000000000000000000000000000000000000000000000000 8!
b000000000000000000000100 =!
1_!
#9
0_!
#10
b01011 8
b00000000000000000000010110010011 <
b00000000000000000000000000000000 @
b00000000000000000000000000001011 B
b00000000000000000000100000001010 C
b00000000000000000000100000001010000000000010000000000000000000000000000000000000000000000000000000000001000000001011010000000000000000000000000000000000000000000000000000000000000000000000000000000000000000000000000000000000 J
b0000000000000000000000000000000000000000000000000000000000000011000000110001000000000000000000000000000000000000000000000000000000000000000000000 Q
1a
0b
0d
b000 s
b0000 v
b0000 w
b01100 x
b01101 {
b00000 |
b00000000000000000000000000001100 ~
b00000000000000000000000000001100 #!
b00000000000000000000000000000000 $!
b00000000000000000000000000001000 %!
b00000001111000000010000000000000 &!
b00000000000000000000000000000100 '!
b00000000000000000000010110010011 (!
b00000000000000000000000000010000 *!
b00000000000000000000000000000000 -!
b00000000000100000000010110010011 .!
b00000000000000000000000000000000 0!
b00000000000000000000000000010100 2!
b0000000000000000000000000001010000000000000100000000010110010011 4!
b0000000000000000000000000001000000000000000000000000010110010011 6!
b0000000000000000000000000000000000000000000000000000000000000100000001101100000000000000000000000000000000000000000000000000000000000000000 8!
b000000000000000000000101 =!
b00000000000000000000000000010001 \!
1_!
#11
0_!
#12
b00001 :
b00000000000100000000010110010011 <
b00000000000000000000000000000001 A
b00000000000100000000000000000000 D
b00000000000000000000100000000000 E
b00000000000000000000000000000001 F
b00000000000000000000100000001010000010000010000000000001000000000000000000000000000000000000000000000001010000001011010000000000000000000000000000000000000000010000000000000000000000000000000000000000000000000000000000000000 J
b0000000000000000000000000000000000000000000000000000000000000100000000101101000000000000000000000000000000000000000000000000000000000000000000000 Q
1b
b01011 x
b01100 {
b01101 |
b00000000000000000000100000001010 ~
b00000000000000000000000000010000 #!
b00000000000000000000000000001100 %!
b00000000000000000000000000000000 &!
b00000000000000000000000000001000 '!
b00000000000100000000010110010011 (!
b00000000000000000000000000010100 *!
b00000000000000000010011110000011 .!
b00000000000000000000000000011000 2!
b0000000000000000000000000001100000000000000000000010011110000011 4!
b0000000000000000000000000001010000000000000100000000010110010011 6!
b0000000000000000000000000000000000000000000000000000000000000110000001100100000000000000000000000000000000000000000000000000000000000000000 8!
b000000000000000000000110 =!
1_!
#13
0_!
#14
1&
0+
10
b0010 6
b1001 7
b01111 8
b00000 :
b0000011 ;
b00000000000000000010011110000011 <
b00000000000000000000000000000001 ?
b00000000000000000000000000000000 A
b00000000000000000000000000001111 B
b00000000000000000000100000001110 C
b00000000000000000010000000000000 D
b00000000000000000010000000000000 E
b00000000000000000000000000000000 F
b00000000000000000000000000000001 G
b00000000000000000000100000001110000000000010000000000000000000100000000000000000000000000000000000000001100000001111011001001001000000000000000000000000000000000000000000000000000000000000000000000000000000000000000000000000 J
b0000000000000100000000000000000000000000000000000000000000000101000000101101000000000000000000000000000000000000000000000000000000000000000000001 Q
0X
b010 Y
b00001 z
b01011 {
b01100 |
b00000000000000000000000000000001 !!
b00000000000100000000000000000000 "!
b00000000000000000000000000010100 #!
b00000000000000000000000000010000 %!
b00000000000000000000000000001100 '!
b00000000000000000010011110000011 (!
b00000000000000000000000000011000 *!
b00000000000001100000010100110011 .!
b00000000000000000000000000011100 2!
b0000000000000000000000000001110000000000000001100000010100110011 4!
b0000000000000000000000000001100000000000000000000010011110000011 6!
b0000000000000000000000000000000000000000000000000000000000001000000001011100000000000000000000000000000000000000000000000000000000000000000 8!
b000000000000000000000111 =!
1_!
#15
0_!
#16
0&
1+
1,
0-
00
b0000 6
b0000 7
b01010 8
b01100 9
b0110011 ;
b00000000000001100000010100110011 <
b00000000000000000000000000000000 ?
b00000000000000000000000000001010 B
b00000000000000000000000000001010 C
b00000000000001100000000000000000 D
b00000000000001100000000000000000 E
b00000000000000000000000000000000 G
b00000000000000000000000000001010000000110000000000000000011000000000000000000000000000000000000000000001110000001010010000000000000000000000000000000000000000000000000000000000000000000000000000000000000000000000000000000000 J
b0000000000000000000010000000000000000000000000000000000000000110000000111101100100000000000000000000000000000000000000000000000000000000000000000 Q
1W
b000 Y
1]
b1001 t
b0010 u
b01111 x
b00000 z
b01011 |
b00000000000000000000100000001110 ~
b00000000000000000000000000000000 !!
b00000000000000000010000000000000 "!
b00000000000000000000000000011000 #!
b00000000000100000000000000000000 $!
b00000000000000000000000000010100 %!
b00000000000000000000000000010000 '!
b00000000000001100000010100110011 (!
b00000000000000000000000000011100 *!
b00000000000000000000000000000001 +!
b00000000000101101000011010010011 .!
b00000000000000000000000000100000 2!
b0000000000000000000000000010000000000000000101101000011010010011 4!
b0000000000000000000000000001110000000000000001100000010100110011 6!
b0000000000001000000000000000000000000000000000000000000000001010000001011100000000000000000000000000000000100000000000000000000000000000000 8!
b000000000000000000001000 =!
1_!
#17
0_!
#18
0,
1-
b01101 8
b01101 9
b00001 :
b0010011 ;
b00000000000101101000011010010011 <
b00000000000000000000000000000001 @
b00000000000000000000000000000001 A
b00000000000000000000000000001101 B
b00000000000000000000100000001100 C
b00000000000101101000000000000000 D
b00000000000001101000100000000000 E
b00000000000000000000000000000001 F
b00000000000000000000100000001100000010110110000000000001011010000000000000000000000000000000000000000010000000001101010000000000000000000000000000000000000000010000000000000000000000000000000000000000000000000000000000000000 J
b0000000000000001100000000000000000000000000000000000000000000111000000101001000000000000000000000000000000000000000000000000000000000000000000000 Q
0W
1X
0[
0]
1^
b010 s
b0000 t
b0000 u
b0010 v
b01010 x
b01100 y
b01111 {
b00000000000000000000000000001010 ~
b00000000000001100000000000000000 "!
b00000000000000000000000000011100 #!
b00000000000000000010000000000000 $!
b00000000000000000000000000011000 %!
b00000000000100000000000000000000 &!
b00000000000000000000000000010100 '!
b00000000000101101000011010010011 (!
b00000000000000000000000000100000 *!
b00000000000000000000000000000000 +!
b00000000000000000000000000000001 -!
b00000000101101010000011000110011 .!
b00000000000000000000000000010001 1!
b00000000000000000000000000100100 2!
b00000000000000000000000000010001 3!
b0000000000000000000000000010010000000000101101010000011000110011 4!
b0000000000000000000000000010000000000000000101101000011010010011 6!
b0000000000000000000100000000000000000000000000000000000000001100000001111110000000000000000000000000000000000000000000000000000000000010001 8!
b000000000000000000001001 =!
1_!
#19
0_!
#20
1,
0-
b01100 8
b01010 9
b01011 :
b0110011 ;
b00000000101101010000011000110011 <
b00000000000000000000000000000001 >
b00000000000000000000000000000001 ?
b00000000000000000000000000010001 @
b00000000000000000000000000001011 A
b00000000000000000000000000001100 B
b00000000000000000000000000001100 C
b00000000101101010000000000000000 D
b00000000000001010000100000001010 E
b00000000000000000000000000001011 F
b00000000000000000000000000000001 G
b00000000000000000000000000001100010110101000000000001011010100000000000000000000000000000000000000000010010000001100010000000000000000000000000000000000000010110000000000000000000000000000000100000000000000000000000000000000 J
b0000000000000101101000000000000000000000000000000000000000001000000000110101000000000000000000000000000000000000000000000000000000000000000000001 Q
1W
0X
1[
0^
1_
b000 s
b0000 v
b01101 x
b01101 y
b00001 z
b01010 {
b01111 |
b00000000000000000000100000001100 ~
b00000000000000000000000000000001 !!
b00000000000101101000000000000000 "!
b00000000000000000000000000100000 #!
b00000000000001100000000000000000 $!
b00000000000000000000000000011100 %!
b00000000000000000010000000000000 &!
b00000000000000000000000000011000 '!
b00000000101101010000011000110011 (!
b00000000000000000000000000100100 *!
b00000000000000000000000000010001 ,!
b00000000000000000000000000000000 -!
b11111110110101111000000011100011 .!
b00000000000000000000000000000000 1!
b00000000000000000000000000101000 2!
b00000000000000000000000000000000 3!
b0000000000000000000000000010100011111110110101111000000011100011 4!
b0000000000000000000000000010010000000000101101010000011000110011 6!
b0000000000000011000000000000000000000000000000000000000000001110000001010100000000000000000000000000000000000000000000000000000000000000000 8!
b000000000000000000001010 =!
b00000000000000000000000000000001 I!
1_!
b00000000000000000000000000000001 d!
#21
0_!
#22
1%
0'
0*
1.
b1000 6
b00001 8
b01111 9
b01101 :
b1100011 ;
b11111110110101111000000011100011 <
b00000000000000000000000000010001 =
b00000000000000000000000000000000 >
b00000000000000000000000000000000 @
b11111111111111111111111111101101 A
b11111111111111111111111111100001 B
b11111111111111111111111111100000 C
b11111110110101111000000000000000 D
b11111111111101111000111111101100 E
b11111111111111111111111111101101 F
b00000000000000000000000000000001 I
b11111111111111111111111111100000011010111100111111101101011110000000000000000000000000000000000000000010100000000001000100010000111111111111111111111111111011010000000000000000000000000000000000000000000000000000000000010001 J
b0000000000101101010000000000000000000000000000000000000000001001000000110001000000000000000000000000000000000000100000000000000000000000000000001 Q
b1111111 V
0W
0[
0_
b01 q
b01100 x
b01010 y
b01011 z
b01101 {
b01010 |
b00000000000000000000000000001100 ~
b00000000000000000000000000001011 !!
b00000000101101010000000000000000 "!
b00000000000000000000000000100100 #!
b00000000000101101000000000000000 $!
b00000000000000000000000000100000 %!
b00000000000001100000000000000000 &!
b00000000000000000000000000011100 '!
b11111110110101111000000011100011 (!
b00000000000000000000000000101000 *!
b00000000000000000000000000000001 +!
b00000000000000000000000000000000 ,!
b00000000000101101111011100010011 .!
b00000000000000000000000000000001 /!
b00000000000000000000000000101100 2!
b0000000000000000000000000010110000000000000101101111011100010011 4!
b0000000000000000000000000010100011111110110101111000000011100011 6!
b0000000000001011010000000000000000000000000000000000000000010000000001101100000000000000000000000000000000100000000000000000000000000000000 8!
b000000000000000000001011 =!
b00000000000000000000000000010001 M!
1_!
b00000000000000000000000000010001 c!
b00000000000000000000000000000000 d!
#23
0_!
#24
0%
1'
1*
0,
1-
0.
b0111 6
b0111 7
b01110 8
b01101 9
b00001 :
b0010011 ;
b00000000000101101111011100010011 <
b00000000000000000000000000000001 =
b00000000000000000000000000000001 @
b00000000000000000000000000000001 A
b00000000000000000000000000001110 B
b00000000000000000000000000001110 C
b00000000000101101111000000000000 D
b00000000000001101111100000000000 E
b00000000000000000000000000000001 F
b00000000000000000000000000000000 G
b00000000000000000000000000010001 H
b00000000000000000000000000001110000010110110000000000001011011110000000000000000000000000000000000000010110000001110010011100111000000000000000000000000000000010000000000000000000000000000000000000000000000000000000000000001 J
b0011111110110101111000000000000000000000000000000000000000001010000000000100010000000000000000000000000000000000100000000000000000000000000000000 Q
b0000000 V
1X
b111 Y
1\
0`
b00 q
b01 r
b1000 u
b00001 x
b01111 y
b01101 z
b01100 {
b01101 |
b11111111111111111111111111100000 ~
b11111111111111111111111111101101 !!
b11111110110101111000000000000000 "!
b00000000000000000000000000101000 #!
b00000000101101010000000000000000 $!
b00000000000000000000000000100100 %!
b00000000000101101000000000000000 &!
b00000000000000000000000000100000 '!
b00000000000101101111011100010011 (!
b00000000000000000000000000010001 )!
b00000000000000000000000000101100 *!
b00000000000000000000000000000001 -!
b11111110000001110000011011100011 .!
b00000000000000000000000000000000 /!
b00000000000000000000000000000001 0!
b00000000000000000000000000110000 2!
b0000000000000000000000000011000011111110000001110000011011100011 4!
b0000000000000000000000000010110000000000000101101111011100010011 6!
b0000000001011010100000000000000000000000000000000000000000010010000001100100000000000000000000000000000000100000000000000000000000000000000 8!
b000000000000000000001100 =!
1_!
1a!
b00000000000000000000000000000000 c!
#25
0_!
